{
  "count": 1118,
  "next": "https://pokeapi.co/api/v2/pokemon/?offset=807&limit=311",
  "previous": null,
  "results": [
    {
      "name": "bulbasaur",
      "url": "https://pokeapi.co/api/v2/pokemon/1/",
      "id": "1",
      "pokemon": {
        "abilities": [{ "ability": { "name": "overgrow" } }],
        "name": "bulbasaur",
        "stats": [
          {
            "base_stat": 45,
            "effort": 0
          },
          {
            "base_stat": 49,
            "effort": 0
          },
          {
            "base_stat": 49,
            "effort": 0
          },
          {
            "base_stat": 65,
            "effort": 1
          },
          {
            "base_stat": 65,
            "effort": 0
          },
          {
            "base_stat": 45,
            "effort": 0
          }
        ],
        "types": [
          {
            "slot": 1,
            "type": {
              "name": "grass"
            }
          },
          {
            "slot": 2,
            "type": {
              "name": "poison"
            }
          }
        ]
      }
    }
  ]
}
